<?xml version="1.0" encoding="utf-8"?>
<!-- Generator: Adobe Illustrator 21.0.1, SVG Export Plug-In . SVG Version: 6.00 Build 0)  -->
<svg version="1.1" id="Capa_1" xmlns="http://www.w3.org/2000/svg" xmlns:xlink="http://www.w3.org/1999/xlink" x="0px" y="0px"
	 viewBox="0 0 21.5 21.5" style="enable-background:new 0 0 21.5 21.5;" xml:space="preserve">
<style type="text/css">
	.st0{fill:#FFFFFF;}
	.st1{fill:#B4B4B4;}
</style>
<path class="st0" d="M10.8,21.5c-6,0-10.8-4.8-10.8-10.7S4.8,0,10.8,0s10.8,4.8,10.8,10.8S16.7,21.5,10.8,21.5z"/>
<path class="st1" d="M10.8,21.5c-6,0-10.8-4.8-10.8-10.7S4.8,0,10.8,0s10.8,4.8,10.8,10.8S16.7,21.5,10.8,21.5z M10.8,1.5
	c-5.1,0-9.2,4.1-9.2,9.2s4.1,9.2,9.2,9.2s9.2-4.1,9.2-9.2C20,5.7,15.8,1.5,10.8,1.5z"/>
</svg>
