<?xml version="1.0" encoding="utf-8"?>
<!-- Generator: Adobe Illustrator 21.0.1, SVG Export Plug-In . SVG Version: 6.00 Build 0)  -->
<svg version="1.1" id="Capa_1" xmlns="http://www.w3.org/2000/svg" xmlns:xlink="http://www.w3.org/1999/xlink" x="0px" y="0px"
	 viewBox="0 0 23.4 12.9" style="enable-background:new 0 0 23.4 12.9;" xml:space="preserve">
<style type="text/css">
	.st0{fill:#FFFFFF;}
</style>
<path class="st0" d="M12.2,12.9c-0.2,0-0.4-0.1-0.5-0.2L0.2,1.2c-0.3-0.3-0.3-0.7,0-1s0.7-0.3,1,0l11,11l10-11c0.3-0.3,0.7-0.3,1,0
	s0.3,0.7,0,1L12.7,12.7C12.6,12.8,12.4,12.9,12.2,12.9L12.2,12.9z"/>
</svg>
